<?xml version="1.0" encoding="UTF-8" standalone="no"?>
<svg
   width="128"
   height="128"
   viewBox="0 0 128 128"
   version="1.1"
   id="svg10"
   sodipodi:docname="svelte.svg"
   inkscape:version="1.2.2 (732a01da63, 2022-12-09)"
   xmlns:inkscape="http://www.inkscape.org/namespaces/inkscape"
   xmlns:sodipodi="http://sodipodi.sourceforge.net/DTD/sodipodi-0.dtd"
   xmlns="http://www.w3.org/2000/svg"
   xmlns:svg="http://www.w3.org/2000/svg"
   xmlns:rdf="http://www.w3.org/1999/02/22-rdf-syntax-ns#"
   xmlns:cc="http://creativecommons.org/ns#"
   xmlns:dc="http://purl.org/dc/elements/1.1/">
  <defs
     id="defs14" />
  <sodipodi:namedview
     id="namedview12"
     pagecolor="#ffffff"
     bordercolor="#000000"
     borderopacity="0.25"
     inkscape:showpageshadow="2"
     inkscape:pageopacity="0.0"
     inkscape:pagecheckerboard="0"
     inkscape:deskcolor="#d1d1d1"
     showgrid="false"
     inkscape:zoom="7.3884892"
     inkscape:cx="50.280915"
     inkscape:cy="63.883155"
     inkscape:window-width="2560"
     inkscape:window-height="1369"
     inkscape:window-x="-8"
     inkscape:window-y="-8"
     inkscape:window-maximized="1"
     inkscape:current-layer="svg10" />
  <title
     id="title2">svelte-horizontal</title>
  <path
     id="path6-6"
     style="fill:#ffffff"
     d="M 75.355469,2.0234375 C 67.757931,2.2744826 60.315867,4.9134746 54.104496,9.2648485 45.763966,14.608634 37.36373,19.852952 29.118749,25.284593 c -4.923719,3.186926 -8.860043,7.78351 -11.603124,12.943923 -0.146125,0.302327 -0.54009,1.051774 -0.75804,1.536272 -4.304949,9.05349 -4.46798,19.864441 -0.814614,29.160872 0.434715,0.57521 -0.02876,1.109326 -0.272858,1.652982 -5.596965,11.305289 -4.681414,25.431058 2.025377,36.070678 6.566038,10.74463 18.37286,18.08953 30.925356,19.17202 1.25561,0.12181 2.828454,0.18931 4.231082,0.16468 5.021322,-0.0695 10.038185,-1.08297 14.661744,-3.05243 0.352791,-0.14882 1.06452,-0.46693 1.543979,-0.70041 3.561408,-1.75778 6.802664,-4.08099 10.168629,-6.1734 7.439646,-4.78308 14.977947,-9.41798 22.30385,-14.37441 8.89944,-6.648412 14.30335,-17.63786 14.26543,-28.733661 0.0397,-4.971297 -0.99726,-9.914 -2.80728,-14.53374 3.79345,-7.218289 5.01359,-15.699592 3.58446,-23.713927 C 114.61317,23.329075 107.12262,13.233297 97.174729,7.5092125 90.616994,3.6735084 82.944201,1.7691479 75.355469,2.0234375 Z" />
  <path
     d="m 167.51069,94.837921 a 24.0793,24.0793 0 0 1 -13.72,-3.8769 19.8715,19.8715 0 0 1 -8.0107,-10.6094 l 8.3515,-3.0683 a 15.4054,15.4054 0 0 0 5.4541,6.6044 14.3656,14.3656 0 0 0 8.2657,2.4288 12.1375,12.1375 0 0 0 7.8818,-2.3858 8.2746,8.2746 0 0 0 2.94,-6.8174 7.4559,7.4559 0 0 0 -0.8095,-3.4511 10.325,10.325 0 0 0 -1.8321,-2.6 12.3611,12.3611 0 0 0 -3.1533,-2.0879 q -2.1314,-1.0635 -3.5361,-1.6192 -1.4062,-0.5521 -4.1328,-1.4912 -3.41,-1.1924 -5.1133,-1.874 a 38.46,38.46 0 0 1 -4.4737,-2.2588 16.5385,16.5385 0 0 1 -4.1757,-3.1523 15.2908,15.2908 0 0 1 -2.5137,-4.1338 14.77,14.77 0 0 1 4.0049,-16.7871 q 5.1138,-4.5162 13.8906,-4.5166 7.3272,0 12.0576,3.2382 a 15.6579,15.6579 0 0 1 6.3487,8.6075 l -8.1807,2.7265 a 9.5238,9.5238 0 0 0 -3.9629,-4.3887 13.31,13.31 0 0 0 -6.9443,-1.6621 10.703,10.703 0 0 0 -6.69,1.875 6.2891,6.2891 0 0 0 -2.4287,5.2832 5.5132,5.5132 0 0 0 1.874,4.0909 12.885,12.885 0 0 0 3.92,2.6416 q 2.0464,0.8524 6.2217,2.3007 2.5547,0.939 3.791,1.4063 1.2363,0.4673 3.6221,1.5762 a 24.997,24.997 0 0 1 3.6641,2.0029 32.1346,32.1346 0 0 1 2.9824,2.4287 12.7235,12.7235 0 0 1 2.6,3.11 17.39,17.39 0 0 1 1.5332,3.8339 17.5828,17.5828 0 0 1 0.64,4.8155 q 0,8.3524 -5.71,13.08 -5.7095,4.7309 -14.6559,4.7303 z m 54.6221,-1.0224 -20.4521,-59.6514 h 9.5449 l 13.5488,41.5856 a 64.4659,64.4659 0 0 1 1.875,6.8173 64.0335,64.0335 0 0 1 1.875,-6.8173 l 13.3789,-41.586 h 9.459 l -20.3672,59.6518 z m 47.294,0 v -59.6514 h 36.9843 v 8.3516 h -28.1211 v 16.3613 h 18.15 v 8.3516 h -18.15 v 18.2353 h 29.9952 v 8.3516 z m 61.44,0 v -59.6514 h 8.8633 v 51.13 h 29.1435 v 8.5215 z m 71.41,-51.13 v 51.13 h -8.8632 v -51.13 h -16.8716 v -8.5214 h 42.6074 v 8.5215 z m 35.1934,51.13 v -59.6514 h 36.9844 v 8.3516 h -28.1206 v 16.3613 h 18.15 v 8.3516 h -18.15 v 18.2353 h 29.9951 v 8.3516 z"
     style="fill:#4a4a55"
     id="path4" />
  <path
     d="m 105.35379,22.818621 c -10.4,-14.8850995 -30.94,-19.2970995 -45.7914,-9.8348 l -26.0827,16.6237 a 29.9232,29.9232 0 0 0 -13.5187,20.0428 31.5143,31.5143 0 0 0 3.1076,20.2318 30.0059,30.0059 0 0 0 -4.4761,11.1829 31.8885,31.8885 0 0 0 5.4472,24.115699 c 10.4022,14.8865 30.9424,19.2966 45.7915,9.8348 l 26.0826,-16.623699 a 29.9182,29.9182 0 0 0 13.5187,-20.0428 31.5276,31.5276 0 0 0 -3.1057,-20.2323 30.0012,30.0012 0 0 0 4.4742,-11.1824 31.88,31.88 0 0 0 -5.4472,-24.1157"
     style="fill:#ff3e00"
     id="path6" />
  <path
     d="m 57.01419,106.58122 a 20.718,20.718 0 0 1 -22.2363,-8.242599 19.173,19.173 0 0 1 -3.2766,-14.5025 18.1886,18.1886 0 0 1 0.6233,-2.4357 l 0.4912,-1.4978 1.3362,0.9815 a 33.6466,33.6466 0 0 0 10.203,5.0978 l 0.9694,0.2941 -0.0892,0.9675 a 5.8469,5.8469 0 0 0 1.052,3.8781 6.2388,6.2388 0 0 0 6.6952,2.485 5.7456,5.7456 0 0 0 1.602,-0.7041 l 26.0828,-16.6218 a 5.431,5.431 0 0 0 2.4507,-3.631 5.7944,5.7944 0 0 0 -0.9876,-4.3712 6.2435,6.2435 0 0 0 -6.6977,-2.4864 5.7427,5.7427 0 0 0 -1.6,0.7036 l -9.9533,6.3449 a 19.0336,19.0336 0 0 1 -5.2964,2.3259 20.7182,20.7182 0 0 1 -22.237,-8.2427 19.173,19.173 0 0 1 -3.2766,-14.5024 17.9892,17.9892 0 0 1 8.13,-12.0513 l 26.0811,-16.6232 a 19.0031,19.0031 0 0 1 5.3,-2.3287 20.718,20.718 0 0 1 22.2365,8.2426 19.1734,19.1734 0 0 1 3.2766,14.5025 18.4,18.4 0 0 1 -0.6233,2.4357 l -0.4912,1.4978 -1.3356,-0.98 a 33.6175,33.6175 0 0 0 -10.2037,-5.1 l -0.9693,-0.2942 0.0892,-0.9675 a 5.8576,5.8576 0 0 0 -1.052,-3.878 6.2388,6.2388 0 0 0 -6.6952,-2.485 5.7456,5.7456 0 0 0 -1.602,0.7041 l -26.0833,16.6225 a 5.422,5.422 0 0 0 -2.4492,3.631 5.7858,5.7858 0 0 0 0.9857,4.3717 6.2435,6.2435 0 0 0 6.6977,2.4864 5.7652,5.7652 0 0 0 1.602,-0.7041 l 9.952,-6.3425 a 18.9787,18.9787 0 0 1 5.2958,-2.3278 20.7183,20.7183 0 0 1 22.2369,8.2427 19.173,19.173 0 0 1 3.2766,14.5024 17.9982,17.9982 0 0 1 -8.13,12.0532 l -26.0807,16.620799 a 19.0031,19.0031 0 0 1 -5.3,2.3287"
     style="fill:#ffffff"
     id="path8" />
  <metadata
     id="metadata401">
    <rdf:RDF>
      <cc:Work
         rdf:about="">
        <dc:title>svelte-horizontal</dc:title>
      </cc:Work>
    </rdf:RDF>
  </metadata>
</svg>
